<?xml version="1.0" encoding="UTF-8" standalone="no" ?>
<COLLADA xmlns="http://www.collada.org/2005/11/COLLADASchema" version="1.4.1">
  <asset>
    <contributor>
      <author>Assimp</author>
      <authoring_tool>Assimp Exporter</authoring_tool>
    </contributor>
    <created>2016-02-12T18:58:19</created>
    <modified>2016-02-12T18:58:19</modified>
    <unit name="meter" meter="1" />
    <up_axis>Y_UP</up_axis>
  </asset>
  <library_effects>
    <effect id="m0DefaultMaterial-fx" name="m0DefaultMaterial">
      <profile_COMMON>
        <technique sid="standard">
          <phong>
            <ambient>
              <color sid="ambient">0.05   0.05   0.05   1</color>
            </ambient>
            <diffuse>
              <color sid="diffuse">0.6   0.6   0.6   1</color>
            </diffuse>
            <specular>
              <color sid="specular">0.6   0.6   0.6   1</color>
            </specular>
          </phong>
        </technique>
      </profile_COMMON>
    </effect>
  </library_effects>
  <library_materials>
    <material id="m0DefaultMaterial" name="m0DefaultMaterial">
      <instance_effect url="#m0DefaultMaterial-fx"/>
    </material>
  </library_materials>
  <library_geometries>
    <geometry id="meshId0" name="meshId0_name" >
      <mesh>
        <source id="meshId0-positions" name="meshId0-positions">
          <float_array id="meshId0-positions-array" count="948"> -0.025 0.0116662 0.0274624 -0.025 0.012 0.0275 -0.02 0.012 0.0275 -0.02 0.0116662 0.0274624 -0.025 0.0113492 0.0273515 -0.02 0.0113492 0.0273515 -0.025 0.0110648 0.0271727 -0.02 0.0110648 0.0271727 -0.025 0.0108273 0.0269352 -0.02 0.0108273 0.0269352 -0.025 0.0106485 0.0266508 -0.02 0.0106485 0.0266508 -0.025 0.0105376 0.0263338 -0.02 0.0105376 0.0263338 -0.025 0.0105 0.026 -0.02 0.0105 0.026 -0.025 0.0105376 0.0256662 -0.02 0.0105376 0.0256662 -0.025 0.0106485 0.0253492 -0.02 0.0106485 0.0253492 -0.025 0.0108273 0.0250648 -0.02 0.0108273 0.0250648 -0.025 0.0110648 0.0248273 -0.02 0.0110648 0.0248273 -0.025 0.0113492 0.0246485 -0.02 0.0113492 0.0246485 -0.025 0.0116662 0.0245376 -0.02 0.0116662 0.0245376 -0.025 0.012 0.0245 -0.02 0.012 0.0245 -0.025 0.0123338 0.0245376 -0.02 0.0123338 0.0245376 -0.025 0.0126508 0.0246485 -0.02 0.0126508 0.0246485 -0.025 0.0129352 0.0248273 -0.02 0.0129352 0.0248273 -0.025 0.0131727 0.0250648 -0.02 0.0131727 0.0250648 -0.025 0.0133515 0.0253492 -0.02 0.0133515 0.0253492 -0.025 0.0134624 0.0256662 -0.02 0.0134624 0.0256662 -0.025 0.0135 0.026 -0.02 0.0135 0.026 -0.025 0.0134624 0.0263338 -0.02 0.0134624 0.0263338 -0.025 0.0133515 0.0266508 -0.02 0.0133515 0.0266508 -0.025 0.0131727 0.0269352 -0.02 0.0131727 0.0269352 -0.025 0.0129352 0.0271727 -0.02 0.0129352 0.0271727 -0.025 0.0126508 0.0273515 -0.02 0.0126508 0.0273515 -0.025 0.0123338 0.0274624 -0.02 0.0123338 0.0274624 -0.025 0.000150026 0.0278105 -0.025 0.000336597 0.0287003 -0.025 3.75706e-05 0.0269084 -0.025 0.00059601 0.0295717 -0.025 0.000926493 0.0304186 -0.025 0.00132579 0.0312354 -0.025 0.00179117 0.0320164 -0.025 0.00231945 0.0327563 -0.025 0.00290704 0.0334501 -0.025 0.0035499 0.034093 -0.025 0.00424366 0.0346805 -0.025 0.00498357 0.0352088 -0.025 0.00576458 0.0356742 -0.025 0.00658135 0.0360735 -0.025 0.00742831 0.036404 -0.025 0.00829966 0.0366634 -0.025 0.00918946 0.03685 -0.025 0.0100916 0.0369624 -0.025 0.011 0.037 -0.025 0.013 0.037 -0.025 0.0139084 0.0369624 -0.025 0.0157003 0.0366634 -0.025 0.0148105 0.03685 -0.025 0.0165717 0.036404 -0.025 0.0174186 0.0360735 -0.025 0.0182354 0.0356742 -0.025 0.0197563 0.0346805 -0.025 0.0190164 0.0352088 -0.025 0.0204501 0.034093 -0.025 0.0216805 0.0327563 -0.025 0.021093 0.0334501 -0.025 0.0222088 0.0320164 -0.025 0.0230735 0.0304186 -0.025 0.0226742 0.0312354 -0.025 0.023404 0.0295717 -0.025 0.02385 0.0278105 -0.025 0.0236634 0.0287003 -0.025 0.0239624 0.0269084 -0.025 0.024 0.026 -0.025 0.024 0 -0.025 0 0 -0.025 0 0.026 -0.02 0.011 0.037 -0.02 0.013 0.037 -0.02 0 0.026 -0.02 3.75706e-05 0.0269084 -0.02 0.000150026 0.0278105 -0.02 0.000336597 0.0287003 -0.02 0.00059601 0.0295717 -0.02 0.000926493 0.0304186 -0.02 0.00132579 0.0312354 -0.02 0.00179117 0.0320164 -0.02 0.00231945 0.0327563 -0.02 0.00290704 0.0334501 -0.02 0.0035499 0.034093 -0.02 0.00424366 0.0346805 -0.02 0.00498357 0.0352088 -0.02 0.00576458 0.0356742 -0.02 0.00658135 0.0360735 -0.02 0.00742831 0.036404 -0.02 0.00829966 0.0366634 -0.02 0.00918946 0.03685 -0.02 0.0100916 0.0369624 -0.02 0.024 0.026 -0.02 0.0239624 0.0269084 -0.02 0.02385 0.0278105 -0.02 0.0236634 0.0287003 -0.02 0.023404 0.0295717 -0.02 0.0230735 0.0304186 -0.02 0.0226742 0.0312354 -0.02 0.0222088 0.0320164 -0.02 0.0216805 0.0327563 -0.02 0.021093 0.0334501 -0.02 0.0204501 0.034093 -0.02 0.0197563 0.0346805 -0.02 0.0190164 0.0352088 -0.02 0.0182354 0.0356742 -0.02 0.0174186 0.0360735 -0.02 0.0165717 0.036404 -0.02 0.0157003 0.0366634 -0.02 0.0148105 0.03685 -0.02 0.0139084 0.0369624 -0.02 0 0.005 -0.02 0.024 0.005 -0.0125 0.024 0 -0.0125 -1.4456e-19 0 0.02 0 0.005 0.02 0.024 0.005 -0.0125 0.024 -0.01 -0.0125 -1.87928e-18 -0.01 0.02 0.02385 0.0278105 0.02 0.0135 0.026 0.02 0.0134624 0.0263338 0.02 0.0236634 0.0287003 0.02 0.0239624 0.0269084 0.02 0.024 0.026 0.02 0.0134624 0.0256662 0.02 0.0133515 0.0253492 0.02 0.0131727 0.0250648 0.02 0.0123338 0.0245376 0.02 0.0126508 0.0246485 0.02 0.012 0.0245 0.02 0.0129352 0.0248273 0.02 0.0116662 0.0245376 0.02 0.0113492 0.0246485 0.02 0.0110648 0.0248273 0.02 0.0108273 0.0250648 0.02 0 0.026 0.02 0.0106485 0.0253492 0.02 0.0105 0.026 0.02 3.75706e-05 0.0269084 0.02 0.0105376 0.0256662 0.02 0.000150026 0.0278105 0.02 0.0105376 0.0263338 0.02 0.000336597 0.0287003 0.02 0.00059601 0.0295717 0.02 0.000926493 0.0304186 0.02 0.0106485 0.0266508 0.02 0.00132579 0.0312354 0.02 0.00179117 0.0320164 0.02 0.00231945 0.0327563 0.02 0.0108273 0.0269352 0.02 0.00290704 0.0334501 0.02 0.0035499 0.034093 0.02 0.00424366 0.0346805 0.02 0.0110648 0.0271727 0.02 0.00498357 0.0352088 0.02 0.00576458 0.0356742 0.02 0.00658135 0.0360735 0.02 0.0113492 0.0273515 0.02 0.00742831 0.036404 0.02 0.00829966 0.0366634 0.02 0.0116662 0.0274624 0.02 0.00918946 0.03685 0.02 0.0100916 0.0369624 0.02 0.011 0.037 0.02 0.012 0.0275 0.02 0.013 0.037 0.02 0.0123338 0.0274624 0.02 0.0139084 0.0369624 0.02 0.0157003 0.0366634 0.02 0.0126508 0.0273515 0.02 0.0148105 0.03685 0.02 0.0165717 0.036404 0.02 0.0174186 0.0360735 0.02 0.0129352 0.0271727 0.02 0.0182354 0.0356742 0.02 0.0197563 0.0346805 0.02 0.0131727 0.0269352 0.02 0.0190164 0.0352088 0.02 0.0204501 0.034093 0.02 0.0216805 0.0327563 0.02 0.0133515 0.0266508 0.02 0.021093 0.0334501 0.02 0.0222088 0.0320164 0.02 0.0230735 0.0304186 0.02 0.0226742 0.0312354 0.02 0.023404 0.0295717 0.025 0.011 0.037 0.025 0.013 0.037 0.025 0 0.026 0.025 3.75706e-05 0.0269084 0.025 0.000150026 0.0278105 0.025 0.000336597 0.0287003 0.025 0.00059601 0.0295717 0.025 0.000926493 0.0304186 0.025 0.00132579 0.0312354 0.025 0.00179117 0.0320164 0.025 0.00231945 0.0327563 0.025 0.00290704 0.0334501 0.025 0.0035499 0.034093 0.025 0.00424366 0.0346805 0.025 0.00498357 0.0352088 0.025 0.00576458 0.0356742 0.025 0.00658135 0.0360735 0.025 0.00742831 0.036404 0.025 0.00829966 0.0366634 0.025 0.00918946 0.03685 0.025 0.0100916 0.0369624 0.025 0.024 0.026 0.025 0.0239624 0.0269084 0.025 0.02385 0.0278105 0.025 0.0236634 0.0287003 0.025 0.023404 0.0295717 0.025 0.0230735 0.0304186 0.025 0.0226742 0.0312354 0.025 0.0222088 0.0320164 0.025 0.0216805 0.0327563 0.025 0.021093 0.0334501 0.025 0.0204501 0.034093 0.025 0.0197563 0.0346805 0.025 0.0190164 0.0352088 0.025 0.0182354 0.0356742 0.025 0.0174186 0.0360735 0.025 0.0165717 0.036404 0.025 0.0157003 0.0366634 0.025 0.0148105 0.03685 0.025 0.0139084 0.0369624 0.025 0.0116662 0.0245376 0.025 0.012 0.0245 0.025 0.0113492 0.0246485 0.025 0.0110648 0.0248273 0.025 0.0108273 0.0250648 0.025 0.0106485 0.0253492 0.025 0.0105376 0.0256662 0.025 0.0105 0.026 0.025 0.0105376 0.0263338 0.025 0.0106485 0.0266508 0.025 0.0108273 0.0269352 0.025 0.0110648 0.0271727 0.025 0.0113492 0.0273515 0.025 0.0116662 0.0274624 0.025 0.012 0.0275 0.025 0.0123338 0.0274624 0.025 0.0126508 0.0273515 0.025 0.0129352 0.0271727 0.025 0.0131727 0.0269352 0.025 0.0133515 0.0266508 0.025 0.0134624 0.0263338 0.025 0.0135 0.026 0.025 0.0134624 0.0256662 0.025 0.0133515 0.0253492 0.025 0.0131727 0.0250648 0.025 0.0129352 0.0248273 0.025 0.0126508 0.0246485 0.025 0.0123338 0.0245376 0.025 0 0 0.025 0.024 0 0.0125 0.024 0 0.0125 -1.87928e-18 0 0.0125 -1.4456e-19 -0.01 0.0125 0.024 -0.01 0.0095 0.024 -0.002 0.0115 0.024 -0.005 -0.0095 0.024 -0.002 0.0095 0.024 -0.005 0.0115 0.024 -0.01 -0.0115 0.024 -0.005 -0.0095 0.024 -0.005 -0.0115 0.024 -0.01 -0.0095 0 -0.002 0.0095 0 -0.002 0.0115 0.0232 -0.01 -0.0115 0.0232 -0.01 0.0095 3.01691e-19 -0.005 -0.0095 0 -0.005 -0.0115 3.46945e-18 -0.005 -0.0115 -1.73472e-18 -0.01 0.0115 -7.80626e-18 -0.005 0.0115 0 -0.01 0.0115 0.0008 -0.01 -0.0115 0.0008 -0.01 0.0115 0.012 -0.08 -0.0115 0.012 -0.08 0.0115 0.00383816 -0.01 0.0115 0.0201618 -0.01 -0.0115 0.00383816 -0.01 -0.0115 0.0201618 -0.01 -0.0115 0.012 -0.0610115 0.0115 0.012 -0.0610115 </float_array>
          <technique_common>
            <accessor count="316" offset="0" source="#meshId0-positions-array" stride="3">
              <param name="X" type="float" />
              <param name="Y" type="float" />
              <param name="Z" type="float" />
            </accessor>
          </technique_common>
        </source>
        <source id="meshId0-normals" name="meshId0-normals">
          <float_array id="meshId0-normals-array" count="948"> -0.9885 0.0280853 -0.14859 -0.981118 -0.00725672 -0.193272 0.981119 0.00725672 -0.193272 0.988502 0.0391478 -0.146055 -0.979712 0.0801264 -0.183693 0.979709 0.0937064 -0.177172 -0.989352 0.0864263 -0.117099 0.989354 0.0949516 -0.110288 -0.989741 0.108276 -0.0932192 0.989739 0.114963 -0.0848494 -0.990026 0.12454 -0.0658689 0.990028 0.129123 -0.0563228 -0.990207 0.134847 -0.0361433 0.990206 0.137188 -0.0259299 -0.982076 0.188355 -0.00707212 0.982076 0.188355 0.00707212 -0.805422 0.58239 0.110078 0.805442 0.572468 0.153439 -0.999848 0.0159573 0.00696046 0.99977 0.0189563 0.010026 -0.95475 0.239292 0.176612 0.94155 0.255294 0.219793 -0.961637 0.178983 0.207892 0.948189 0.188665 0.255623 -0.963801 0.124655 0.235689 0.949153 0.125867 0.288557 -0.962207 0.0705023 0.263034 0.944802 0.0608507 0.321942 -0.999966 0.000310595 0.00827222 0.999946 -0.000390078 0.0103891 -0.962202 -0.0505794 0.2676 0.944809 -0.0848196 0.316451 -0.963807 -0.106591 0.244365 0.949144 -0.147198 0.278313 -0.961633 -0.162912 0.22073 0.948195 -0.207277 0.240756 -0.954755 -0.225375 0.194035 0.941544 -0.271058 0.200058 -0.999848 -0.0153908 0.00814019 0.99977 -0.019654 0.00857295 -0.805442 -0.572468 0.153439 0.805422 -0.58239 0.110078 -0.982076 -0.188355 0.00707214 0.982075 -0.188355 -0.00707214 -0.990206 -0.137188 -0.0259298 0.990207 -0.134847 -0.0361432 -0.990028 -0.129123 -0.0563226 0.990026 -0.124539 -0.0658686 -0.989739 -0.114963 -0.0848494 0.989741 -0.108276 -0.0932192 -0.989354 -0.0949515 -0.110288 0.989352 -0.0864262 -0.117099 -0.979709 -0.0937068 -0.177173 0.979712 -0.0801267 -0.183694 -0.988501 -0.0391482 -0.146057 0.9885 -0.0280856 -0.148592 -0.856192 -0.50839 0.0920583 -0.812912 -0.562542 0.150732 -0.813757 -0.578503 0.0559782 -0.81251 -0.548699 0.19687 -0.854689 -0.472494 0.215071 -0.810561 -0.511177 0.285814 -0.809717 -0.486795 0.327703 -0.851948 -0.408746 0.327278 -0.806718 -0.429219 0.406174 -0.805489 -0.3953 0.441503 -0.848002 -0.319726 0.422692 -0.801511 -0.32014 0.505065 -0.799958 -0.278298 0.531618 -0.843004 -0.20927 0.49553 -0.795149 -0.188975 0.576218 -0.838986 -0.126305 0.529291 -0.790076 -0.0925366 0.605984 -0.787917 -0.0423862 0.614321 -0.904784 -0.00550515 0.425836 -0.728127 0.00886056 0.685385 -0.787926 0.0592886 0.612909 -0.838984 0.140837 0.525615 -0.790069 0.109228 0.603208 -0.795152 0.204798 0.570781 -0.843002 0.222852 0.489577 -0.799959 0.292848 0.523742 -0.848004 0.331236 0.413728 -0.801511 0.333945 0.496046 -0.805481 0.40733 0.430444 -0.85195 0.417614 0.31588 -0.806722 0.440264 0.394168 -0.809716 0.495638 0.314169 -0.854695 0.47823 0.20197 -0.810557 0.518865 0.271616 -0.812501 0.553932 0.181664 -0.856199 0.510726 0.0779925 -0.812916 0.566476 0.135177 -0.813746 0.579842 0.0400078 -0.774417 0.632676 0.000496535 -0.930801 0.197402 -0.307639 -0.821461 -0.174213 -0.543003 -0.76855 -0.639789 0.000984794 0.728127 -0.00886056 0.685385 0.904784 0.00550515 0.425836 0.909698 -0.415269 0.000712143 0.813747 -0.57984 0.0400074 0.856198 -0.510725 0.0780082 0.812917 -0.566477 0.135167 0.8125 -0.553933 0.181666 0.854696 -0.478231 0.201964 0.810557 -0.518868 0.271612 0.809717 -0.495643 0.314159 0.851952 -0.417606 0.315884 0.806716 -0.440255 0.39419 0.805482 -0.407343 0.430431 0.848007 -0.33124 0.41372 0.801511 -0.333942 0.496048 0.799957 -0.29285 0.523743 0.843005 -0.222849 0.489572 0.795147 -0.204795 0.570789 0.838988 -0.140841 0.525608 0.790071 -0.109226 0.603205 0.787924 -0.0592871 0.612912 0.90313 0.429365 0.00141509 0.813757 0.578505 0.0559606 0.856192 0.50839 0.0920586 0.812913 0.562541 0.150732 0.812509 0.548698 0.196874 0.854689 0.472493 0.215074 0.81056 0.511174 0.285822 0.809716 0.48679 0.327713 0.851952 0.408757 0.327255 0.806714 0.429224 0.406176 0.805489 0.395287 0.441515 0.848002 0.319723 0.422693 0.801511 0.320143 0.505064 0.799956 0.278295 0.531622 0.843008 0.209274 0.495521 0.795143 0.188975 0.576225 0.838987 0.126303 0.52929 0.790078 0.0925389 0.605981 0.787915 0.042387 0.614324 0.558335 -0.381718 0.736582 0.339159 0.290134 0.894871 -0.337159 0.419342 -0.842898 -0.636389 -0.660916 -0.397743 -0.339159 -0.290134 0.894871 -0.558335 0.381718 0.736582 -0.995313 0.0311035 -0.0915725 -0.991431 -0.0619644 -0.114998 -0.856199 0.510726 0.0779925 -0.982076 -0.188355 0.00707214 -0.990206 -0.137188 -0.0259298 -0.812916 0.566476 0.135177 -0.813746 0.579842 0.0400078 -0.909698 0.415269 0.000712688 -0.805442 -0.572468 0.153439 -0.99977 -0.0189563 0.010026 -0.94155 -0.255294 0.219793 -0.944802 -0.0608506 0.321942 -0.949153 -0.125867 0.288557 -0.999946 0.000390078 0.0103891 -0.948189 -0.188665 0.255623 -0.944809 0.0848197 0.316451 -0.949144 0.147198 0.278313 -0.948195 0.207277 0.240756 -0.941544 0.271058 0.200058 -0.90313 -0.429365 0.001414 -0.99977 0.019654 0.00857295 -0.982076 0.188355 -0.00707212 -0.813757 -0.578503 0.0559782 -0.805422 0.58239 0.110078 -0.856192 -0.50839 0.0920583 -0.990207 0.134847 -0.0361433 -0.812912 -0.562542 0.150732 -0.81251 -0.548699 0.19687 -0.854689 -0.472494 0.215071 -0.990026 0.12454 -0.0658689 -0.810561 -0.511177 0.285814 -0.809717 -0.486795 0.327703 -0.851948 -0.408746 0.327278 -0.989741 0.108276 -0.0932192 -0.806718 -0.429219 0.406174 -0.805489 -0.3953 0.441503 -0.848002 -0.319726 0.422692 -0.989352 0.0864263 -0.117099 -0.801511 -0.32014 0.505065 -0.799958 -0.278298 0.531617 -0.843004 -0.20927 0.49553 -0.979712 0.0801264 -0.183693 -0.795149 -0.188975 0.576218 -0.838986 -0.126305 0.529291 -0.9885 0.0280853 -0.14859 -0.790076 -0.0925366 0.605984 -0.787917 -0.0423862 0.614321 -0.904784 -0.00550515 0.425836 -0.981118 -0.00725672 -0.193272 -0.728127 0.00886056 0.685385 -0.988501 -0.0391482 -0.146057 -0.787926 0.0592886 0.612909 -0.838984 0.140837 0.525615 -0.979709 -0.0937068 -0.177173 -0.790069 0.109228 0.603208 -0.795152 0.204798 0.570781 -0.843002 0.222852 0.489577 -0.989354 -0.0949515 -0.110288 -0.799959 0.292848 0.523742 -0.848004 0.331236 0.413728 -0.989739 -0.114963 -0.0848494 -0.801511 0.333945 0.496046 -0.805481 0.40733 0.430444 -0.85195 0.417614 0.31588 -0.990028 -0.129123 -0.0563226 -0.806722 0.440264 0.394168 -0.809716 0.495638 0.314169 -0.854695 0.47823 0.20197 -0.810557 0.518865 0.271616 -0.812501 0.553932 0.181664 0.728127 -0.00886056 0.685385 0.904784 0.00550515 0.425836 0.774417 -0.632676 0.000496155 0.813747 -0.57984 0.0400074 0.856198 -0.510725 0.0780082 0.812917 -0.566477 0.135167 0.8125 -0.553933 0.181666 0.854696 -0.478231 0.201964 0.810557 -0.518868 0.271612 0.809717 -0.495643 0.314159 0.851952 -0.417606 0.315884 0.806716 -0.440255 0.39419 0.805482 -0.407343 0.430431 0.848007 -0.33124 0.41372 0.801511 -0.333942 0.496048 0.799957 -0.29285 0.523743 0.843005 -0.222849 0.489572 0.795147 -0.204795 0.570789 0.838988 -0.140841 0.525608 0.790071 -0.109226 0.603205 0.787924 -0.0592871 0.612912 0.76855 0.639789 0.000985547 0.813757 0.578505 0.0559606 0.856192 0.50839 0.0920586 0.812913 0.562541 0.150732 0.812509 0.548698 0.196874 0.854689 0.472493 0.215074 0.81056 0.511174 0.285822 0.809716 0.48679 0.327713 0.851952 0.408757 0.327255 0.806714 0.429224 0.406176 0.805489 0.395287 0.441515 0.848002 0.319723 0.422693 0.801511 0.320143 0.505064 0.799956 0.278295 0.531622 0.843008 0.209274 0.495521 0.795143 0.188975 0.576225 0.838987 0.126303 0.52929 0.790078 0.0925389 0.605981 0.787915 0.042387 0.614324 0.962202 0.0505794 0.267599 0.999966 -0.000310595 0.00827223 0.963807 0.106591 0.244365 0.961633 0.162912 0.22073 0.954755 0.225375 0.194035 0.999848 0.0153908 0.00814019 0.805442 0.572468 0.153439 0.982076 0.188355 0.00707212 0.990206 0.137188 -0.0259299 0.990028 0.129123 -0.0563228 0.989739 0.114963 -0.0848494 0.989354 0.0949516 -0.110288 0.979709 0.0937064 -0.177172 0.988502 0.0391478 -0.146055 0.981119 0.00725672 -0.193272 0.9885 -0.0280856 -0.148592 0.979712 -0.0801267 -0.183694 0.989352 -0.0864262 -0.117099 0.989741 -0.108276 -0.0932192 0.990026 -0.124539 -0.0658686 0.990207 -0.134847 -0.0361432 0.982075 -0.188356 -0.00707214 0.805422 -0.58239 0.110078 0.999848 -0.0159573 0.00696046 0.95475 -0.239292 0.176612 0.961637 -0.178983 0.207892 0.963801 -0.124655 0.235689 0.962207 -0.0705023 0.263035 0.821461 -0.174213 -0.543003 0.930801 0.197402 -0.307639 0.535833 0.514065 -0.669791 0.517044 -0.561208 -0.646305 0.995313 -0.0311035 -0.0915724 0.991431 0.0619644 -0.114998 -0.154926 0.115118 -0.981196 -0.0904763 0.995241 -0.0361905 0.299015 0.11836 -0.94688 -0.0390319 0.995314 0.0884723 -0.619875 0.774845 -0.123975 0.0904763 0.995241 -0.0361905 0.0795647 0.122662 0.989254 0.619875 0.774845 -0.123975 0.0785502 -0.0621855 -0.994969 -0.151935 -0.225792 -0.962254 0.922139 0.380364 -0.0705909 -0.108156 0.98147 -0.158177 -0.0741143 -0.944957 0.318691 0.302937 -0.233514 0.923959 0.0904765 -0.995241 -0.0361906 0.619876 -0.774844 -0.123975 -0.0904765 -0.995241 -0.0361906 -0.619876 -0.774844 -0.123975 0.922138 -0.380365 -0.0705911 -0.108156 -0.98147 -0.158177 0.370237 1.14e-07 -0.928937 -0.636652 0 -0.771151 0.0659011 0.997792 -0.00823264 0.116544 -0.882267 -0.456095 -0.116542 0.882268 -0.456094 -0.065902 -0.997792 -0.00823342 -0.491915 0.784905 0.376754 0.491915 -0.784906 0.376753 </float_array>
          <technique_common>
            <accessor count="316" offset="0" source="#meshId0-normals-array" stride="3">
              <param name="X" type="float" />
              <param name="Y" type="float" />
              <param name="Z" type="float" />
            </accessor>
          </technique_common>
        </source>
        <vertices id="meshId0-vertices">
          <input semantic="POSITION" source="#meshId0-positions" />
          <input semantic="NORMAL" source="#meshId0-normals" />
        </vertices>
        <polylist count="644" material="defaultMaterial">
          <input offset="0" semantic="VERTEX" source="#meshId0-vertices" />
          <vcount>3 3 3 3 3 3 3 3 3 3 3 3 3 3 3 3 3 3 3 3 3 3 3 3 3 3 3 3 3 3 3 3 3 3 3 3 3 3 3 3 3 3 3 3 3 3 3 3 3 3 3 3 3 3 3 3 3 3 3 3 3 3 3 3 3 3 3 3 3 3 3 3 3 3 3 3 3 3 3 3 3 3 3 3 3 3 3 3 3 3 3 3 3 3 3 3 3 3 3 3 3 3 3 3 3 3 3 3 3 3 3 3 3 3 3 3 3 3 3 3 3 3 3 3 3 3 3 3 3 3 3 3 3 3 3 3 3 3 3 3 3 3 3 3 3 3 3 3 3 3 3 3 3 3 3 3 3 3 3 3 3 3 3 3 3 3 3 3 3 3 3 3 3 3 3 3 3 3 3 3 3 3 3 3 3 3 3 3 3 3 3 3 3 3 3 3 3 3 3 3 3 3 3 3 3 3 3 3 3 3 3 3 3 3 3 3 3 3 3 3 3 3 3 3 3 3 3 3 3 3 3 3 3 3 3 3 3 3 3 3 3 3 3 3 3 3 3 3 3 3 3 3 3 3 3 3 3 3 3 3 3 3 3 3 3 3 3 3 3 3 3 3 3 3 3 3 3 3 3 3 3 3 3 3 3 3 3 3 3 3 3 3 3 3 3 3 3 3 3 3 3 3 3 3 3 3 3 3 3 3 3 3 3 3 3 3 3 3 3 3 3 3 3 3 3 3 3 3 3 3 3 3 3 3 3 3 3 3 3 3 3 3 3 3 3 3 3 3 3 3 3 3 3 3 3 3 3 3 3 3 3 3 3 3 3 3 3 3 3 3 3 3 3 3 3 3 3 3 3 3 3 3 3 3 3 3 3 3 3 3 3 3 3 3 3 3 3 3 3 3 3 3 3 3 3 3 3 3 3 3 3 3 3 3 3 3 3 3 3 3 3 3 3 3 3 3 3 3 3 3 3 3 3 3 3 3 3 3 3 3 3 3 3 3 3 3 3 3 3 3 3 3 3 3 3 3 3 3 3 3 3 3 3 3 3 3 3 3 3 3 3 3 3 3 3 3 3 3 3 3 3 3 3 3 3 3 3 3 3 3 3 3 3 3 3 3 3 3 3 3 3 3 3 3 3 3 3 3 3 3 3 3 3 3 3 3 3 3 3 3 3 3 3 3 3 3 3 3 3 3 3 3 3 3 3 3 3 3 3 3 3 3 3 3 3 3 3 3 3 3 3 3 3 3 3 3 3 3 3 3 3 3 3 3 3 3 3 3 3 3 3 3 3 3 3 3 3 3 3 3 3 3 3 3 3 3 3 3 3 3 3 3 3 3 3 3 3 3 3 3 3 3 3 3 3 3 3 3 3 3 3 3 3 3 3 3 3 3 3 3 3 3 3 3 3 3 3 3 3 3 3 3 3 3 3 3 3 3 3 3 3 3 3 3 </vcount>
          <p>0 1 2 3 0 2 4 0 3 0 4 71 72 0 71 0 73 74 0 72 73 1 0 74 4 70 71 116 71 70 71 116 117 117 72 71 72 117 118 118 73 72 73 118 98 98 74 73 1 74 75 75 74 98 98 99 75 99 98 2 3 2 98 98 118 3 118 117 3 3 117 116 3 5 4 116 5 3 6 4 5 5 7 6 116 115 5 114 7 5 5 115 114 4 6 69 69 70 4 6 68 69 114 69 68 69 114 115 115 70 69 70 115 116 68 113 114 114 113 7 6 67 68 113 68 67 67 112 113 113 112 7 66 67 6 112 67 66 66 111 112 7 112 111 8 65 66 6 8 66 111 66 65 65 110 111 111 9 7 111 110 9 8 64 65 110 65 64 64 109 110 110 109 9 63 64 8 109 64 63 63 108 109 9 109 108 62 63 10 8 10 63 108 63 62 62 107 108 108 11 9 11 108 107 10 61 62 107 62 61 61 106 107 107 106 11 60 61 10 106 61 60 60 105 106 11 106 105 59 60 12 10 12 60 105 60 59 59 104 105 105 13 11 13 105 104 12 57 59 104 59 57 57 103 104 104 103 13 56 57 12 103 57 56 56 102 103 13 103 102 14 58 56 12 14 56 102 56 58 58 101 102 102 15 13 102 101 15 14 97 58 101 58 97 97 100 101 101 100 15 13 15 14 16 14 15 15 17 16 100 17 15 14 12 13 14 16 97 18 16 17 97 16 18 17 19 18 19 17 100 19 100 138 138 100 97 20 18 19 19 21 20 138 21 19 96 97 18 18 20 96 22 20 21 96 20 22 21 23 22 23 21 138 24 22 23 96 22 24 23 25 24 25 23 138 26 24 25 24 26 96 25 27 26 138 27 25 28 26 27 96 26 28 27 29 28 138 29 27 30 28 29 95 28 30 28 95 96 29 31 30 29 138 139 139 31 29 32 30 31 30 32 95 31 33 32 139 33 31 34 32 33 95 32 34 33 35 34 35 33 139 36 34 35 34 36 95 35 37 36 139 37 35 38 36 37 95 36 38 37 39 38 39 37 139 40 38 39 38 94 95 38 40 94 39 41 40 139 119 39 119 41 39 42 40 41 94 40 42 41 43 42 43 41 119 119 94 93 93 120 119 43 119 120 94 119 139 44 42 43 43 45 44 43 120 121 45 43 121 120 93 91 91 121 120 91 93 42 93 94 42 91 42 44 44 92 91 121 91 92 92 122 121 121 122 45 90 92 44 122 92 90 90 123 122 45 122 123 44 88 90 123 90 88 88 124 123 123 124 45 88 44 46 46 89 88 124 88 89 89 125 124 47 45 124 124 125 47 87 89 46 125 89 87 87 126 125 47 125 126 46 85 87 126 87 85 85 127 126 126 127 47 85 46 48 48 86 85 127 85 86 86 128 127 49 47 127 127 128 49 84 86 48 128 86 84 84 129 128 49 128 129 82 84 48 129 84 82 82 130 129 49 129 130 82 48 50 50 83 82 130 82 83 83 131 130 51 49 130 130 131 51 81 83 50 131 83 81 81 132 131 51 131 132 80 81 50 132 81 80 80 133 132 51 132 133 80 50 52 52 79 80 133 80 79 79 134 133 53 51 133 133 134 53 77 79 52 134 79 77 77 135 134 53 134 135 51 53 52 54 52 53 53 55 54 55 53 135 52 50 51 77 52 54 54 78 77 135 77 78 78 136 135 135 136 55 76 78 54 136 78 76 76 137 136 55 136 137 54 75 76 137 76 75 75 99 137 137 99 55 75 54 1 1 54 55 55 2 1 2 55 99 49 51 50 47 49 48 50 48 49 45 47 46 48 46 47 46 44 45 139 95 94 96 95 140 140 95 139 140 141 96 138 96 141 97 96 138 139 138 142 141 142 138 142 143 139 139 284 140 284 139 143 143 142 157 159 157 142 142 160 159 161 160 142 142 162 161 142 163 164 164 162 142 285 142 141 285 282 142 216 163 142 142 282 216 163 216 217 216 260 261 217 216 261 216 259 260 259 216 282 217 166 163 166 217 218 218 217 261 261 260 167 167 165 261 262 261 165 218 261 262 260 259 164 164 167 260 165 167 163 167 164 163 165 163 166 165 166 168 169 165 168 165 169 262 218 168 166 168 218 219 262 219 218 168 170 169 219 170 168 170 219 220 220 219 262 169 170 171 220 171 170 171 220 221 262 221 220 171 172 169 221 172 171 172 221 222 221 262 263 263 222 221 173 169 172 172 174 173 222 174 172 174 222 223 223 222 263 173 174 175 223 175 174 175 223 224 263 224 223 175 176 173 224 176 175 176 224 225 224 263 264 264 225 224 177 173 176 176 178 177 225 178 176 178 225 226 226 225 264 177 178 179 226 179 178 179 226 227 227 226 264 177 179 180 227 180 179 180 227 228 227 264 265 265 228 227 181 177 180 180 182 181 228 182 180 182 228 229 229 228 265 181 182 183 229 183 182 183 229 230 230 229 265 181 183 184 230 184 183 184 230 231 230 265 266 266 231 230 185 181 184 184 186 185 231 186 184 186 231 232 232 231 266 266 265 181 181 185 266 267 266 185 232 266 267 185 186 187 188 185 187 185 188 267 232 187 186 187 232 233 267 233 232 268 267 188 214 267 268 267 214 234 234 233 267 233 189 187 189 233 234 187 189 188 188 189 190 234 190 189 190 234 214 214 215 193 193 191 214 214 191 190 268 215 214 190 191 188 192 188 191 191 193 192 194 192 193 193 195 194 253 195 193 193 215 253 269 253 215 215 268 269 195 253 252 269 252 253 195 198 194 252 198 195 198 252 251 251 252 269 194 198 196 251 196 198 196 251 250 270 250 251 269 270 251 196 197 194 196 199 197 250 199 196 199 250 249 249 250 270 270 269 194 194 197 270 271 270 197 270 271 249 200 201 197 197 199 200 197 201 271 249 200 199 200 249 248 271 248 249 272 271 201 271 272 246 246 247 271 271 247 248 202 248 247 248 202 200 200 202 201 202 205 201 247 205 202 205 247 246 203 246 245 246 203 205 272 245 246 201 205 203 203 204 201 203 206 204 245 206 203 206 245 244 272 244 245 206 209 204 244 209 206 209 244 243 243 244 272 204 209 207 243 207 209 207 243 242 242 243 273 272 273 243 207 208 204 208 207 210 242 210 207 210 242 241 273 241 242 210 212 208 241 212 210 212 241 240 240 241 273 208 212 211 240 211 212 211 240 239 239 240 274 273 274 240 211 148 208 148 211 213 239 213 211 213 239 238 274 238 239 213 149 148 238 149 213 149 238 237 237 238 274 148 149 146 237 146 149 146 237 236 275 236 237 274 275 237 146 147 148 146 150 147 236 150 146 150 236 235 275 235 236 275 274 148 148 147 275 276 275 147 275 276 235 151 152 147 150 151 147 147 152 276 235 151 150 283 235 277 235 276 277 235 283 143 143 151 235 277 276 152 153 152 151 152 153 277 153 151 143 143 154 153 278 277 153 153 154 278 277 278 283 279 278 154 283 278 279 158 154 143 154 158 279 280 279 158 283 279 280 156 158 143 158 156 280 281 280 156 280 281 283 143 155 156 156 155 281 255 281 155 283 281 255 157 155 143 155 157 255 254 255 157 282 255 254 255 282 283 284 283 282 143 283 284 282 258 259 282 256 257 254 256 282 257 258 282 282 285 284 157 159 254 256 254 159 159 160 256 257 256 160 160 161 257 258 257 161 161 162 258 259 258 162 162 164 259 284 285 286 286 287 284 140 284 288 284 289 288 289 284 287 141 140 144 288 290 140 144 140 293 293 140 290 290 294 293 296 290 288 301 294 290 290 296 301 293 295 144 299 295 293 299 293 294 294 301 300 300 291 294 294 291 299 302 301 296 307 300 301 301 302 307 302 141 145 296 141 302 145 303 302 302 303 307 144 145 141 141 296 297 297 285 141 145 144 312 312 307 145 307 303 145 144 299 313 313 312 144 144 295 299 311 310 312 312 313 311 307 312 314 314 312 310 286 306 310 310 311 286 315 310 306 310 315 314 299 309 314 314 313 299 314 309 307 313 314 315 308 300 307 307 309 308 308 309 299 299 291 308 298 308 291 300 308 306 306 308 315 315 308 298 298 311 315 315 311 313 289 292 298 291 289 298 311 298 287 298 292 287 289 291 288 288 291 300 287 292 289 287 286 311 286 285 304 304 305 286 286 305 306 304 285 297 297 300 304 306 305 304 306 304 300 288 297 296 300 297 288 208 148 274 204 208 273 274 273 208 201 204 272 273 272 204 192 194 269 188 192 268 269 268 192 177 181 265 173 177 264 265 264 177 169 173 263 264 263 173 263 262 169 11 13 12 9 11 10 12 10 11 7 9 8 10 8 9 8 6 7 </p>
        </polylist>
      </mesh>
    </geometry>
  </library_geometries>
  <library_visual_scenes>
    <visual_scene id="Scene" name="Scene">
      <node id="<STL_BINARY>" name="<STL_BINARY>">
        <matrix>1 0 0 0 0 1 0 0 0 0 1 0 0 0 0 1</matrix>
        <instance_geometry url="#meshId0">
          <bind_material>
            <technique_common>
              <instance_material symbol="defaultMaterial" target="#m0DefaultMaterial" />
            </technique_common>
          </bind_material>
        </instance_geometry>
      </node>
    </visual_scene>
  </library_visual_scenes>
  <scene>
    <instance_visual_scene url="#Scene" />
  </scene>
</COLLADA>
